<?xml version="1.0" encoding="UTF-8"?>
<svg width="36px" height="36px" viewBox="0 0 36 36" version="1.1" xmlns="http://www.w3.org/2000/svg" xmlns:xlink="http://www.w3.org/1999/xlink">
    <title>arrow copy</title>
    <g id="Symbols" stroke="none" stroke-width="1" fill="none" fill-rule="evenodd">
        <g id="arrow-copy">
            <g id="arrow" transform="translate(7.000000, 9.000000)" fill="#002858">
                <path d="M19,15 L17,15 L17,5 L7,5 L7,3 L19,3 L19,15 Z" id="Rectangle-Copy-4" transform="translate(13.000000, 9.000000) rotate(45.000000) translate(-13.000000, -9.000000) "></path>
                <rect id="Rectangle" x="0" y="8" width="19" height="2"></rect>
            </g>
        </g>
    </g>
</svg>
