<?xml version="1.0" encoding="utf-8"?>
<!-- Generator: Adobe Illustrator 23.0.4, SVG Export Plug-In . SVG Version: 6.00 Build 0)  -->
<svg version="1.1" id="Layer_1" xmlns="http://www.w3.org/2000/svg" xmlns:xlink="http://www.w3.org/1999/xlink" x="0px" y="0px"
	 viewBox="0 0 32 32" style="enable-background:new 0 0 32 32;" xml:space="preserve">
<style type="text/css">
	.st0{fill:#002858;}
</style>
<path class="st0" d="M20.2,4.6h-3.5v14.2c0,1.7-1.4,3.1-3,3.1c-1.7,0-3-1.4-3-3.1c0-1.7,1.3-3,2.9-3.1v-3.6c-3.6,0.1-6.5,3-6.5,6.6
	c0,3.7,2.9,6.6,6.6,6.6c3.6,0,6.6-3,6.6-6.6v-7.3c1.3,1,2.9,1.5,4.7,1.6V9.5C22.3,9.4,20.2,7.3,20.2,4.6z"/>
</svg>
