<?xml version="1.0" encoding="UTF-8"?>
<svg id="Layer_2" xmlns="http://www.w3.org/2000/svg" width="350" height="92.593" version="1.1" viewBox="0 0 350 92.593">
  <!-- Generator: Adobe Illustrator 29.1.0, SVG Export Plug-In . SVG Version: 2.1.0 Build 142)  -->
  <defs>
    <style>
      .st0 {
        fill: #002452;
      }
    </style>
  </defs>
  <g id="Layer_1-2">
    <g>
      <path class="st0" d="M20.333,20.028c0,1.019-.176,1.991-.519,2.926s-.75,1.731-1.213,2.389c-.907.907-1.787,1.602-2.639,2.083-.852.481-1.843.917-2.963,1.296l-6.843,1.074v.704c0,.741,0,1.556.019,2.435.009.88.046,1.722.102,2.537s.139,1.528.25,2.167c.111.63.25,1.074.417,1.315v.454H1.546v-.454c.167-.25.306-.704.417-1.361.111-.657.194-1.407.25-2.241.056-.843.093-1.704.102-2.593s.019-1.713.019-2.454v-9.352c0-.741,0-1.556-.019-2.454-.009-.889-.046-1.759-.102-2.593s-.13-1.583-.231-2.241c-.093-.657-.241-1.13-.435-1.398v-.37c.991-.028,2.13-.065,3.417-.102s2.5-.065,3.63-.065c2.083,0,3.87.204,5.352.602,1.481.398,2.704.954,3.648,1.667s1.639,1.583,2.083,2.62.657,2.176.657,3.444v-.037ZM16.167,19.657c0-1.981-.519-3.389-1.565-4.241s-2.639-1.278-4.778-1.278c-.546,0-1.13.028-1.731.083s-1.25.139-1.935.25v12.361c.546.056,1.157.102,1.833.148.676.037,1.491.065,2.454.065.546,0,1.157-.148,1.833-.435s1.296-.731,1.87-1.315c.574-.593,1.056-1.352,1.444-2.287s.574-2.046.574-3.333v-.019Z"/>
      <path class="st0" d="M42.13,29.213c0,1.537-.25,2.954-.759,4.241s-1.213,2.398-2.12,3.315c-.907.926-1.981,1.639-3.231,2.167-1.25.519-2.63.787-4.139.787s-2.769-.25-3.935-.741-2.167-1.194-3.009-2.102-1.481-1.991-1.935-3.259c-.454-1.259-.676-2.667-.676-4.204s.25-2.954.759-4.241,1.213-2.398,2.12-3.315,1.981-1.639,3.231-2.167c1.25-.519,2.63-.778,4.139-.778,1.426,0,2.731.25,3.917.759,1.176.509,2.194,1.213,3.028,2.12.833.907,1.481,1.991,1.935,3.259.454,1.269.676,2.648.676,4.167v-.009ZM38.176,29.713c0-2.639-.574-4.704-1.713-6.204-1.139-1.5-2.62-2.25-4.426-2.25s-3.157.63-4.204,1.898c-1.046,1.269-1.565,3.185-1.565,5.769s.565,4.741,1.685,6.222c1.13,1.481,2.593,2.222,4.407,2.222s3.231-.63,4.269-1.898c1.028-1.259,1.546-3.185,1.546-5.769v.009Z"/>
      <path class="st0" d="M59.269,32.88c0,.991-.25,1.898-.759,2.722s-1.204,1.546-2.083,2.167c-.88.62-1.907,1.102-3.093,1.444-1.185.343-2.444.519-3.787.519-1.593,0-3.185-.398-4.778-1.194v-3.833h.333c.713.574,1.694,1.065,2.944,1.463,1.25.398,2.537.602,3.852.602.769,0,1.444-.056,2.019-.167s1.019-.315,1.315-.62c.389-.389.574-.991.574-1.815,0-.88-.231-1.509-.676-1.898-.454-.389-1.13-.713-2.037-.991l-3.954-1.111c-2.75-.824-4.12-2.481-4.12-4.981,0-.907.241-1.741.722-2.509s1.12-1.426,1.917-1.981c.796-.546,1.713-.981,2.759-1.296,1.046-.315,2.13-.472,3.259-.472.963,0,1.907.083,2.843.25s1.63.37,2.102.62v3.63h-.37c-.25-.167-.602-.343-1.074-.537-.463-.194-1-.38-1.611-.556-.602-.176-1.259-.333-1.981-.454s-1.444-.185-2.185-.185c-.222,0-.583.009-1.093.037-.509.028-.926.194-1.259.491-.167.167-.306.407-.435.722s-.185.704-.185,1.176c0,.852.25,1.5.759,1.935s1.38.843,2.62,1.194l3.259.944c1.398.389,2.454.954,3.148,1.713.704.759,1.046,1.75,1.046,2.991l.009-.019Z"/>
      <path class="st0" d="M67.713,21.63v10.88c0,.741.046,1.398.148,1.981.093.574.278,1.046.556,1.426.278.37.657.648,1.157.843s1.157.287,1.981.287c.333,0,.667-.028,1.009-.083s.639-.139.889-.25h.37v2.389c-.491.083-1.157.176-2,.269-.843.093-1.63.194-2.37.306-2.037-.194-3.444-.75-4.222-1.667-.787-.917-1.176-2.204-1.176-3.852,0-.769,0-1.472.019-2.102.009-.63.037-1.231.065-1.815s.046-1.157.065-1.731.019-1.222.019-1.935c0-.491,0-1.167.019-2.019.009-.852.019-1.824.019-2.926h-3.13v-2.306h3.213v-5.519h3.87v.417c-.139.167-.231.444-.287.843s-.093.843-.12,1.315c-.028.481-.046.981-.065,1.5s-.019,1-.019,1.444h6.176v2.306h-6.185Z"/>
      <path class="st0" d="M94.87,28.222c0,1.62-.361,3.13-1.074,4.509-.713,1.389-1.648,2.593-2.806,3.63s-2.472,1.843-3.954,2.426c-1.481.593-2.991.889-4.537.889-.963,0-1.963-.13-3.009-.389s-2.102-.62-3.176-1.093v-.417c.194-.25.333-.694.435-1.343.093-.648.167-1.389.204-2.222.037-.833.065-1.713.065-2.62V15.565c0-.907-.019-1.787-.065-2.639-.037-.852-.111-1.611-.204-2.269s-.241-1.111-.435-1.361v-.37h4.944v.37c-.194.25-.333.704-.435,1.361-.093.657-.167,1.417-.204,2.269-.037.852-.065,1.731-.065,2.639v5.935l4.12-1.898c.389-.167.741-.315,1.074-.454s.676-.204,1.028-.204c1.074,0,2.093.222,3.074.657.972.444,1.833,1.056,2.574,1.852s1.333,1.769,1.769,2.926.657,2.435.657,3.833l.019.009ZM91.204,29.63c0-2.306-.537-4.148-1.611-5.519s-2.556-2.056-4.454-2.056c-.741,0-1.5.204-2.269.62s-1.537.926-2.306,1.528v11.787c.602.306,1.25.519,1.935.657s1.37.204,2.065.204c.63,0,1.241-.083,1.833-.25s1.13-.389,1.63-.657c1.019-.519,1.796-1.315,2.352-2.37.546-1.056.824-2.37.824-3.935v-.009Z"/>
      <path class="st0" d="M110.194,39.389l-.333-2.139-4.528,2.306c-.389.056-.759.093-1.13.102-.37.009-.667.019-.889.019-.852,0-1.639-.139-2.352-.417-.713-.278-1.333-.667-1.852-1.176s-.926-1.102-1.213-1.796c-.287-.685-.435-1.444-.435-2.269,0-.574.065-1.176.185-1.796.12-.62.333-1.185.639-1.713.491-.769,1.231-1.407,2.204-1.917s2.028-.907,3.148-1.194c1.13-.287,2.25-.5,3.361-.639,1.111-.139,2.037-.231,2.778-.287v-2.139c0-.602-.093-1.083-.287-1.444-.194-.361-.454-.63-.787-.824s-.713-.324-1.157-.389-.907-.102-1.398-.102c-.574,0-1.194.074-1.852.222s-1.287.333-1.898.537c-.602.204-1.157.417-1.667.639s-.898.398-1.176.537h-.333v-3.583c.278-.111.639-.222,1.093-.333.454-.111.954-.222,1.5-.333s1.13-.194,1.731-.269,1.222-.102,1.852-.102c1.102,0,2.139.111,3.111.333s1.815.546,2.537.991c.713.435,1.278,1,1.685,1.667.417.676.62,1.463.62,2.37,0,1.315-.019,2.435-.065,3.361-.037.917-.065,1.824-.065,2.704,0,.991.009,1.944.037,2.861s.083,1.759.167,2.509c.083.759.194,1.426.333,2s.333,1,.574,1.278v.417h-4.157l.019.009ZM109.778,29.343c-.657-.056-1.259-.093-1.796-.102s-1.213-.019-2.037-.019c-.963,0-1.88.157-2.759.472s-1.454.861-1.731,1.63c-.167.435-.269.815-.306,1.111-.037.306-.065.63-.065.991,0,1.102.306,1.935.907,2.509s1.481.861,2.639.861c.852,0,1.704-.176,2.556-.537.852-.361,1.713-.815,2.593-1.361v-5.565.009Z"/>
      <path class="st0" d="M131.333,38.343c-.519.204-1.019.389-1.481.537-.463.148-.944.287-1.426.417-.481.12-1.009.241-1.583.352h-.491c-1.315,0-2.537-.241-3.648-.722s-2.074-1.167-2.88-2.056c-.815-.889-1.435-1.981-1.88-3.259-.435-1.278-.657-2.713-.657-4.306s.287-3.028.861-4.306,1.333-2.361,2.269-3.259c.935-.889,2-1.583,3.194-2.056,1.194-.481,2.407-.722,3.648-.722,1.398,0,2.574.148,3.519.435s1.657.546,2.12.759v3.63h-.37c-.491-.25-.972-.481-1.444-.704-.463-.222-.972-.426-1.528-.62-.546-.194-1.185-.343-1.898-.454-.713-.111-1.556-.167-2.509-.167-.444,0-.889.065-1.343.204-.454.139-.87.417-1.259.824-.417.463-.759,1.185-1.046,2.167s-.435,2.324-.435,4.056c0,2.639.593,4.574,1.769,5.806,1.185,1.231,2.694,1.852,4.528,1.852.685,0,1.278-.046,1.769-.148.491-.093.935-.222,1.315-.389.389-.167.759-.352,1.111-.574.361-.222.731-.463,1.111-.741h.407v2.722c-.657.278-1.25.519-1.769.722h.028Z"/>
      <path class="st0" d="M149.63,38.343c-.519.204-1.019.389-1.481.537-.463.148-.944.287-1.426.417-.481.12-1.009.241-1.583.352h-.491c-1.315,0-2.537-.241-3.648-.722s-2.074-1.167-2.88-2.056c-.815-.889-1.435-1.981-1.88-3.259-.435-1.278-.657-2.713-.657-4.306s.287-3.028.861-4.306,1.333-2.361,2.269-3.259c.935-.889,2-1.583,3.194-2.056,1.194-.481,2.407-.722,3.648-.722,1.398,0,2.574.148,3.519.435s1.657.546,2.12.759v3.63h-.37c-.491-.25-.972-.481-1.444-.704-.463-.222-.972-.426-1.528-.62-.546-.194-1.185-.343-1.898-.454-.713-.111-1.556-.167-2.509-.167-.444,0-.889.065-1.343.204-.454.139-.87.417-1.259.824-.417.463-.759,1.185-1.046,2.167s-.435,2.324-.435,4.056c0,2.639.593,4.574,1.769,5.806,1.185,1.231,2.694,1.852,4.528,1.852.685,0,1.278-.046,1.769-.148.491-.093.935-.222,1.315-.389.389-.167.759-.352,1.111-.574.361-.222.731-.463,1.111-.741h.407v2.722c-.657.278-1.25.519-1.769.722h.028Z"/>
      <path class="st0" d="M167.139,39.389l-.333-2.139-4.528,2.306c-.389.056-.759.093-1.13.102-.37.009-.667.019-.889.019-.852,0-1.639-.139-2.352-.417-.713-.278-1.333-.667-1.852-1.176s-.926-1.102-1.213-1.796c-.287-.685-.435-1.444-.435-2.269,0-.574.065-1.176.185-1.796s.333-1.185.639-1.713c.491-.769,1.231-1.407,2.204-1.917s2.028-.907,3.148-1.194c1.13-.287,2.25-.5,3.361-.639s2.037-.231,2.778-.287v-2.139c0-.602-.093-1.083-.287-1.444s-.454-.63-.787-.824c-.333-.194-.713-.324-1.157-.389s-.907-.102-1.398-.102c-.574,0-1.194.074-1.852.222s-1.287.333-1.898.537c-.602.204-1.157.417-1.667.639s-.898.398-1.176.537h-.333v-3.583c.278-.111.639-.222,1.093-.333s.954-.222,1.5-.333,1.13-.194,1.731-.269,1.222-.102,1.852-.102c1.102,0,2.139.111,3.111.333s1.815.546,2.537.991c.713.435,1.278,1,1.685,1.667.417.676.62,1.463.62,2.37,0,1.315-.019,2.435-.065,3.361-.037.917-.065,1.824-.065,2.704,0,.991.009,1.944.037,2.861s.083,1.759.167,2.509c.083.759.194,1.426.333,2s.333,1,.574,1.278v.417h-4.157l.019.009ZM166.722,29.343c-.657-.056-1.259-.093-1.796-.102-.537-.009-1.213-.019-2.037-.019-.963,0-1.88.157-2.759.472s-1.454.861-1.731,1.63c-.167.435-.269.815-.306,1.111-.037.306-.065.63-.065.991,0,1.102.306,1.935.907,2.509.602.574,1.481.861,2.639.861.852,0,1.704-.176,2.556-.537.852-.361,1.713-.815,2.593-1.361v-5.565.009Z"/>
      <path class="st0" d="M175.417,39.389v-.417c.194-.278.333-.741.435-1.398.093-.657.167-1.407.204-2.241.037-.843.065-1.694.065-2.574V15.574c0-.907-.019-1.787-.065-2.639-.037-.852-.111-1.611-.204-2.269s-.241-1.111-.435-1.361v-.37h4.944v.37c-.194.25-.333.704-.435,1.361s-.167,1.417-.204,2.269-.065,1.731-.065,2.639v17.185c0,.88.019,1.741.065,2.574.037.843.111,1.583.204,2.241s.241,1.13.435,1.398v.417h-4.944Z"/>
      <path class="st0" d="M196.972,39.389l-.333-2.139-4.528,2.306c-.389.056-.759.093-1.13.102-.37.009-.667.019-.889.019-.852,0-1.639-.139-2.352-.417-.713-.278-1.333-.667-1.852-1.176s-.926-1.102-1.213-1.796c-.287-.685-.435-1.444-.435-2.269,0-.574.065-1.176.185-1.796s.333-1.185.639-1.713c.491-.769,1.231-1.407,2.204-1.917s2.028-.907,3.148-1.194c1.13-.287,2.25-.5,3.361-.639s2.037-.231,2.778-.287v-2.139c0-.602-.093-1.083-.287-1.444s-.454-.63-.787-.824c-.333-.194-.713-.324-1.157-.389s-.907-.102-1.398-.102c-.574,0-1.194.074-1.852.222s-1.287.333-1.898.537c-.602.204-1.157.417-1.667.639s-.898.398-1.176.537h-.333v-3.583c.278-.111.639-.222,1.093-.333s.954-.222,1.5-.333,1.13-.194,1.731-.269,1.222-.102,1.852-.102c1.102,0,2.139.111,3.111.333s1.815.546,2.537.991c.713.435,1.278,1,1.685,1.667.417.676.62,1.463.62,2.37,0,1.315-.019,2.435-.065,3.361-.037.917-.065,1.824-.065,2.704,0,.991.009,1.944.037,2.861s.083,1.759.167,2.509c.083.759.194,1.426.333,2s.333,1,.574,1.278v.417h-4.157l.019.009ZM196.556,29.343c-.657-.056-1.259-.093-1.796-.102-.537-.009-1.213-.019-2.037-.019-.963,0-1.88.157-2.759.472s-1.454.861-1.731,1.63c-.167.435-.269.815-.306,1.111-.037.306-.065.63-.065.991,0,1.102.306,1.935.907,2.509.602.574,1.481.861,2.639.861.852,0,1.704-.176,2.556-.537.852-.361,1.713-.815,2.593-1.361v-5.565.009Z"/>
      <path class="st0" d="M218.639,39.389v-2.269l-4.37,2.019c-.361.139-.657.259-.907.37-.25.111-.713.167-1.398.167-.963,0-1.833-.167-2.62-.491-.787-.333-1.454-.787-2.019-1.38-.565-.593-1-1.296-1.315-2.12-.315-.824-.472-1.731-.472-2.722,0-.907.019-1.852.065-2.843.037-.991.065-1.991.065-3.009,0-.463,0-1.065-.019-1.796s-.037-1.463-.083-2.204c-.037-.741-.111-1.426-.204-2.065-.093-.63-.231-1.083-.389-1.361v-.454h4.898v.454c-.167.25-.296.704-.389,1.361s-.167,1.407-.204,2.25-.065,1.713-.065,2.62v5.398c0,1.815.333,3.13,1.009,3.954s1.778,1.231,3.315,1.231c.796,0,1.648-.185,2.556-.556.907-.37,1.759-.833,2.556-1.38v-6.185c0-.741,0-1.565-.019-2.472-.009-.907-.037-1.778-.083-2.62-.037-.843-.111-1.583-.204-2.25-.093-.657-.222-1.111-.389-1.361v-.454h4.944v.454c-.194.25-.333.704-.435,1.361-.093.657-.167,1.407-.204,2.25s-.065,1.713-.065,2.62v6.843c0,.88.019,1.731.065,2.556.037.824.111,1.574.204,2.241.093.676.241,1.148.435,1.426v.417h-4.259Z"/>
      <path class="st0" d="M239.694,23.278c-1.287-.278-2.694-.417-4.204-.417-.546,0-1.157.241-1.815.722s-1.278.981-1.852,1.5v5.194c0,.741,0,1.556.019,2.454s.037,1.75.083,2.574c.037.824.12,1.565.231,2.222.111.657.25,1.13.417,1.398v.454h-4.981v-.454c.194-.25.333-.704.435-1.361.093-.657.167-1.407.204-2.241.037-.843.065-1.704.065-2.593v-4.389c0-.741,0-1.556-.019-2.454-.019-.889-.037-1.759-.083-2.593-.037-.843-.111-1.583-.204-2.25-.093-.657-.241-1.13-.435-1.398v-.417h4.287v3.417l4.37-3.176c.352-.278.833-.417,1.444-.417.111,0,.269,0,.472.019s.426.028.657.037c.231.019.463.028.676.037.222.019.407.019.574.019v4.083h-.333l-.009.028Z"/>
      <path class="st0" d="M244.806,29.176c.028,2.5.704,4.398,2.019,5.685s3.009,1.935,5.065,1.935c1.454,0,2.639-.157,3.546-.472.907-.315,1.769-.787,2.593-1.426h.454v2.722c-.796.361-1.5.639-2.12.843s-1.194.389-1.731.537-1.074.278-1.611.37-1.12.194-1.75.306h-.537c-1.481,0-2.815-.241-4-.722s-2.185-1.176-3.009-2.083-1.454-2-1.898-3.278c-.435-1.278-.657-2.713-.657-4.306s.259-3.028.787-4.306,1.222-2.37,2.102-3.278c.88-.907,1.898-1.602,3.046-2.083,1.157-.481,2.38-.722,3.667-.722,2.5,0,4.454.759,5.852,2.287s2.102,3.824,2.102,6.898v1.074h-13.926l.009.019ZM254.935,26.454c0-1.648-.491-2.907-1.463-3.769s-2.287-1.296-3.935-1.296c-1.231,0-2.296.417-3.194,1.259-.889.843-1.38,2.259-1.463,4.269h10.056v-.463Z"/>
      <path class="st0" d="M274.343,39.389l-.333-2.139-4.528,2.306c-.389.056-.759.093-1.13.102-.37.009-.667.019-.889.019-.852,0-1.639-.139-2.352-.417-.713-.278-1.333-.667-1.852-1.176s-.926-1.102-1.213-1.796c-.287-.685-.435-1.444-.435-2.269,0-.574.065-1.176.185-1.796s.333-1.185.639-1.713c.491-.769,1.231-1.407,2.204-1.917s2.028-.907,3.148-1.194c1.13-.287,2.25-.5,3.361-.639s2.037-.231,2.778-.287v-2.139c0-.602-.093-1.083-.287-1.444s-.454-.63-.787-.824c-.333-.194-.713-.324-1.157-.389s-.907-.102-1.398-.102c-.574,0-1.194.074-1.852.222s-1.287.333-1.898.537c-.602.204-1.157.417-1.667.639s-.898.398-1.176.537h-.333v-3.583c.278-.111.639-.222,1.093-.333s.954-.222,1.5-.333,1.13-.194,1.731-.269,1.222-.102,1.852-.102c1.102,0,2.139.111,3.111.333s1.815.546,2.537.991c.713.435,1.278,1,1.685,1.667.417.676.62,1.463.62,2.37,0,1.315-.019,2.435-.065,3.361-.037.917-.065,1.824-.065,2.704,0,.991.009,1.944.037,2.861s.083,1.759.167,2.509c.083.759.194,1.426.333,2s.333,1,.574,1.278v.417h-4.157l.019.009ZM273.935,29.343c-.657-.056-1.259-.093-1.796-.102-.537-.009-1.213-.019-2.037-.019-.963,0-1.88.157-2.759.472s-1.454.861-1.731,1.63c-.167.435-.269.815-.306,1.111-.037.306-.065.63-.065.991,0,1.102.306,1.935.907,2.509.602.574,1.481.861,2.639.861.852,0,1.704-.176,2.556-.537.852-.361,1.713-.815,2.593-1.361v-5.565.009Z"/>
      <path class="st0" d="M287.12,21.63v10.88c0,.741.046,1.398.148,1.981.093.574.278,1.046.556,1.426.278.37.657.648,1.157.843s1.157.287,1.981.287c.333,0,.667-.028,1.009-.083s.639-.139.889-.25h.37v2.389c-.491.083-1.157.176-2,.269-.843.093-1.63.194-2.37.306-2.037-.194-3.444-.75-4.222-1.667-.787-.917-1.176-2.204-1.176-3.852,0-.769,0-1.472.019-2.102.009-.63.037-1.231.065-1.815s.046-1.157.065-1.731.019-1.222.019-1.935c0-.491,0-1.167.019-2.019.009-.852.019-1.824.019-2.926h-3.13v-2.306h3.213v-5.519h3.87v.417c-.139.167-.231.444-.287.843s-.093.843-.12,1.315c-.028.481-.046.981-.065,1.5s-.019,1-.019,1.444h6.176v2.306h-6.185Z"/>
      <path class="st0" d="M298.157,29.176c.028,2.5.704,4.398,2.019,5.685s3.009,1.935,5.065,1.935c1.454,0,2.639-.157,3.546-.472.907-.315,1.769-.787,2.593-1.426h.454v2.722c-.796.361-1.5.639-2.12.843s-1.194.389-1.731.537-1.074.278-1.611.37-1.12.194-1.75.306h-.537c-1.481,0-2.815-.241-4-.722s-2.185-1.176-3.009-2.083-1.454-2-1.898-3.278c-.435-1.278-.657-2.713-.657-4.306s.259-3.028.787-4.306,1.222-2.37,2.102-3.278c.88-.907,1.898-1.602,3.046-2.083,1.157-.481,2.38-.722,3.667-.722,2.5,0,4.454.759,5.852,2.287s2.102,3.824,2.102,6.898v1.074h-13.926l.009.019ZM308.296,26.454c0-1.648-.491-2.907-1.463-3.769s-2.287-1.296-3.935-1.296c-1.231,0-2.296.417-3.194,1.259-.889.843-1.38,2.259-1.463,4.269h10.056v-.463Z"/>
      <path class="st0" d="M20.333,61.694c0,1.019-.176,1.991-.519,2.926s-.75,1.731-1.213,2.389c-.907.907-1.787,1.602-2.639,2.083-.852.481-1.843.917-2.963,1.296l-6.843,1.074v.704c0,.741,0,1.556.019,2.435.009.88.046,1.722.102,2.537s.139,1.528.25,2.167c.111.63.25,1.074.417,1.315v.454H1.546v-.454c.167-.25.306-.704.417-1.361s.194-1.407.25-2.241c.056-.843.093-1.704.102-2.593s.019-1.713.019-2.454v-9.352c0-.741,0-1.556-.019-2.454-.009-.889-.046-1.759-.102-2.593-.056-.833-.13-1.583-.231-2.241-.093-.657-.241-1.13-.435-1.398v-.37c.991-.028,2.13-.065,3.417-.102s2.5-.065,3.63-.065c2.083,0,3.87.204,5.352.602s2.704.954,3.648,1.667,1.639,1.583,2.083,2.62.657,2.176.657,3.444v-.037ZM16.167,61.324c0-1.981-.519-3.389-1.565-4.241-1.046-.852-2.639-1.278-4.778-1.278-.546,0-1.13.028-1.731.083s-1.25.139-1.935.25v12.361c.546.056,1.157.102,1.833.148.676.037,1.491.065,2.454.065.546,0,1.157-.148,1.833-.435s1.296-.731,1.87-1.315c.574-.593,1.056-1.352,1.444-2.287s.574-2.046.574-3.333v-.019Z"/>
      <path class="st0" d="M35.824,64.944c-1.287-.278-2.694-.417-4.204-.417-.546,0-1.157.241-1.815.722s-1.278.981-1.852,1.5v5.194c0,.741,0,1.556.019,2.454s.037,1.75.083,2.574c.037.824.12,1.565.231,2.222s.25,1.13.417,1.398v.454h-4.981v-.454c.194-.25.333-.704.435-1.361.093-.657.167-1.407.204-2.241.037-.843.065-1.704.065-2.593v-4.389c0-.741,0-1.556-.019-2.454-.019-.889-.037-1.759-.083-2.593-.037-.843-.111-1.583-.204-2.25-.093-.657-.241-1.13-.435-1.398v-.417h4.287v3.417l4.37-3.176c.352-.278.833-.417,1.444-.417.111,0,.269,0,.472.019s.426.028.657.037c.231.019.463.028.676.037.222.019.407.019.574.019v4.083h-.333l-.009.028Z"/>
      <path class="st0" d="M40.935,70.843c.028,2.5.704,4.398,2.019,5.685s3.009,1.935,5.065,1.935c1.454,0,2.639-.157,3.546-.472.907-.315,1.769-.787,2.593-1.426h.454v2.722c-.796.361-1.5.639-2.12.843s-1.194.389-1.731.537-1.074.278-1.611.37-1.12.194-1.75.306h-.537c-1.481,0-2.815-.241-4-.722-1.185-.481-2.185-1.176-3.009-2.083s-1.454-2-1.898-3.278c-.435-1.278-.657-2.713-.657-4.306s.259-3.028.787-4.306,1.222-2.37,2.102-3.278,1.898-1.602,3.046-2.083c1.157-.481,2.38-.722,3.667-.722,2.5,0,4.454.759,5.852,2.287s2.102,3.824,2.102,6.898v1.074h-13.926l.009.019ZM51.065,68.12c0-1.648-.491-2.907-1.463-3.769s-2.287-1.296-3.935-1.296c-1.231,0-2.296.417-3.194,1.259-.889.843-1.38,2.259-1.463,4.269h10.056v-.463Z"/>
      <path class="st0" d="M83.25,81.056v-.454c.167-.25.296-.704.389-1.361.093-.657.167-1.407.204-2.241.037-.843.065-1.704.065-2.593v-5.417c0-1.815-.306-3.13-.907-3.935-.602-.815-1.611-1.213-3.009-1.213-.991,0-1.833.148-2.537.435-.704.287-1.528.704-2.491,1.259.056.222.093.491.12.806.028.315.037.657.037,1.009,0,.907-.009,1.852-.037,2.843s-.037,1.991-.037,3.009v1.796c0,.731.019,1.463.065,2.204.037.741.111,1.426.204,2.056s.241,1.083.435,1.361v.454h-4.944v-.454c.194-.25.333-.704.435-1.361.093-.657.167-1.407.204-2.241.037-.843.065-1.704.065-2.593v-5.417c0-1.815-.296-3.13-.889-3.935-.593-.815-1.602-1.213-3.028-1.213-.963,0-1.806.167-2.537.491-.731.333-1.546.769-2.454,1.315v6.306c0,.741,0,1.556.019,2.454s.037,1.75.083,2.574c.037.824.111,1.565.204,2.222s.231,1.13.389,1.398v.454h-4.944v-.454c.194-.25.333-.704.435-1.361.093-.657.167-1.407.204-2.241.037-.843.065-1.704.065-2.593v-4.389c0-.741,0-1.556-.019-2.454-.019-.889-.037-1.759-.083-2.593-.037-.843-.111-1.583-.204-2.25-.093-.657-.241-1.13-.435-1.398v-.417h4.287v2.222l3.917-1.935c.306-.167.62-.306.963-.407s.694-.167,1.046-.167c1.398,0,2.565.259,3.481.759.917.509,1.63,1.204,2.12,2.083l4.528-2.222c.306-.194.63-.343.991-.454.352-.111.731-.167,1.111-.167,2.167,0,3.843.63,5.028,1.88s1.769,2.861,1.769,4.843c0,.907-.019,1.852-.065,2.843-.037.991-.065,1.991-.065,3.009,0,.463,0,1.065.019,1.796.009.731.037,1.463.083,2.204.037.741.111,1.426.204,2.056s.222,1.083.389,1.361v.454h-4.907l.037-.028Z"/>
      <path class="st0" d="M95.111,70.843c.028,2.5.704,4.398,2.019,5.685s3.009,1.935,5.065,1.935c1.454,0,2.639-.157,3.546-.472.907-.315,1.769-.787,2.593-1.426h.454v2.722c-.796.361-1.5.639-2.12.843s-1.194.389-1.731.537-1.074.278-1.611.37-1.12.194-1.75.306h-.537c-1.481,0-2.815-.241-4-.722-1.185-.481-2.185-1.176-3.009-2.083s-1.454-2-1.898-3.278c-.435-1.278-.657-2.713-.657-4.306s.259-3.028.787-4.306,1.222-2.37,2.102-3.278,1.898-1.602,3.046-2.083c1.157-.481,2.38-.722,3.667-.722,2.5,0,4.454.759,5.852,2.287s2.102,3.824,2.102,6.898v1.074h-13.926l.009.019ZM105.25,68.12c0-1.648-.491-2.907-1.463-3.769s-2.287-1.296-3.935-1.296c-1.231,0-2.296.417-3.194,1.259-.889.843-1.38,2.259-1.463,4.269h10.056v-.463Z"/>
      <path class="st0" d="M125.806,81.056v-2.102l-4.694,2.139c-.389.083-.731.139-1.028.167-.306.028-.602.037-.907.037-.935,0-1.87-.231-2.806-.704-.935-.463-1.769-1.13-2.509-2s-1.343-1.907-1.815-3.13c-.463-1.222-.704-2.593-.704-4.102s.259-3,.778-4.306,1.222-2.435,2.102-3.398,1.898-1.713,3.046-2.241c1.157-.537,2.38-.806,3.667-.806.963,0,1.852.111,2.657.333s1.546.657,2.204,1.315v-5.046c0-.917-.028-1.796-.083-2.639s-.139-1.583-.25-2.25-.278-1.111-.491-1.361v-.37h5.065v.37c-.194.25-.333.704-.435,1.361-.093.657-.167,1.417-.204,2.269-.037.852-.065,1.731-.065,2.639v14.713c0,.741,0,1.556.019,2.454.009.889.037,1.75.083,2.574.037.824.111,1.565.204,2.222s.222,1.13.389,1.398v.454h-4.241l.019.009ZM125.806,65.241c-.546-.741-1.241-1.259-2.083-1.565s-1.75-.454-2.741-.454c-1.843,0-3.269.639-4.287,1.917s-1.528,3.028-1.528,5.25c0,1.157.12,2.213.352,3.176s.593,1.796,1.074,2.491c.481.704,1.083,1.241,1.815,1.63.731.389,1.574.574,2.537.574.574,0,1.074-.037,1.481-.12.417-.083.806-.204,1.176-.37s.731-.361,1.074-.574c.343-.222.722-.481,1.13-.787v-11.167h0Z"/>
      <path class="st0" d="M134.796,81.056v-.417c.194-.278.333-.741.435-1.398.093-.657.167-1.407.204-2.241.037-.843.065-1.694.065-2.574v-6.843c0-.907-.019-1.787-.065-2.639-.037-.852-.111-1.611-.204-2.269s-.241-1.111-.435-1.361v-.417h4.944v.417c-.194.25-.333.704-.435,1.361s-.167,1.417-.204,2.269-.065,1.731-.065,2.639v6.843c0,.88.019,1.741.065,2.574.037.843.111,1.583.204,2.241s.241,1.13.435,1.398v.417h-4.944ZM135,56.046v-4.611h4.574v4.611h-4.574Z"/>
      <path class="st0" d="M157.37,80.009c-.519.204-1.019.389-1.481.537s-.944.287-1.426.417c-.481.12-1.009.241-1.583.352h-.491c-1.315,0-2.537-.241-3.648-.722s-2.074-1.167-2.88-2.056c-.815-.889-1.435-1.981-1.88-3.259-.435-1.278-.657-2.713-.657-4.306s.287-3.028.861-4.306,1.333-2.361,2.269-3.259c.935-.889,2-1.583,3.194-2.056,1.194-.481,2.407-.722,3.648-.722,1.398,0,2.574.148,3.519.435s1.657.546,2.12.759v3.63h-.37c-.491-.25-.972-.481-1.444-.704-.463-.222-.972-.426-1.528-.62-.546-.194-1.185-.343-1.898-.454-.713-.111-1.556-.167-2.509-.167-.444,0-.889.065-1.343.204-.454.139-.87.417-1.259.824-.417.463-.759,1.185-1.046,2.167s-.435,2.324-.435,4.056c0,2.639.593,4.574,1.769,5.806,1.185,1.231,2.694,1.852,4.528,1.852.685,0,1.278-.046,1.769-.148.491-.093.935-.222,1.315-.389.389-.167.759-.352,1.111-.574.361-.222.731-.463,1.111-.741h.407v2.722c-.657.278-1.25.519-1.769.722h.028Z"/>
      <path class="st0" d="M174.88,81.056l-.333-2.139-4.528,2.306c-.389.056-.759.093-1.13.102s-.667.019-.889.019c-.852,0-1.639-.139-2.352-.417-.713-.278-1.333-.667-1.852-1.176-.519-.509-.926-1.102-1.213-1.796-.287-.685-.435-1.444-.435-2.269,0-.574.065-1.176.185-1.796.12-.62.333-1.185.639-1.713.491-.769,1.231-1.407,2.204-1.917s2.028-.907,3.148-1.194c1.13-.287,2.25-.5,3.361-.639s2.037-.231,2.778-.287v-2.139c0-.602-.093-1.083-.287-1.444s-.454-.63-.787-.824c-.333-.194-.713-.324-1.157-.389s-.907-.102-1.398-.102c-.574,0-1.194.074-1.852.222-.657.148-1.287.333-1.898.537-.602.204-1.157.417-1.667.639-.509.222-.898.398-1.176.537h-.333v-3.583c.278-.111.639-.222,1.093-.333s.954-.222,1.5-.333,1.13-.194,1.731-.269,1.222-.102,1.852-.102c1.102,0,2.139.111,3.111.333s1.815.546,2.537.991c.713.435,1.278,1,1.685,1.667.417.676.62,1.463.62,2.37,0,1.315-.019,2.435-.065,3.361-.037.917-.065,1.824-.065,2.704,0,.991.009,1.944.037,2.861s.083,1.759.167,2.509c.083.759.194,1.426.333,2s.333,1,.574,1.278v.417h-4.157l.019.009ZM174.472,71.009c-.657-.056-1.259-.093-1.796-.102-.537-.009-1.213-.019-2.037-.019-.963,0-1.88.157-2.759.472-.88.315-1.454.861-1.731,1.63-.167.435-.269.815-.306,1.111-.037.306-.065.63-.065.991,0,1.102.306,1.935.907,2.509.602.574,1.481.861,2.639.861.852,0,1.704-.176,2.556-.537s1.713-.815,2.593-1.361v-5.565.009Z"/>
      <path class="st0" d="M183.167,81.056v-.417c.194-.278.333-.741.435-1.398.093-.657.167-1.407.204-2.241.037-.843.065-1.694.065-2.574v-17.185c0-.907-.019-1.787-.065-2.639-.037-.852-.111-1.611-.204-2.269s-.241-1.111-.435-1.361v-.37h4.944v.37c-.194.25-.333.704-.435,1.361s-.167,1.417-.204,2.269c-.037.852-.065,1.731-.065,2.639v17.185c0,.88.019,1.741.065,2.574.037.843.111,1.583.204,2.241s.241,1.13.435,1.398v.417h-4.944Z"/>
      <path class="st0" d="M222.926,61.694c0,1.019-.176,1.991-.519,2.926s-.75,1.731-1.213,2.389c-.907.907-1.787,1.602-2.639,2.083s-1.843.917-2.963,1.296l-6.843,1.074v.704c0,.741,0,1.556.019,2.435.009.88.046,1.722.102,2.537s.139,1.528.25,2.167c.111.63.25,1.074.417,1.315v.454h-5.398v-.454c.167-.25.306-.704.417-1.361.111-.657.194-1.407.25-2.241.056-.843.093-1.704.102-2.593s.019-1.713.019-2.454v-9.352c0-.741,0-1.556-.019-2.454-.009-.889-.046-1.759-.102-2.593-.056-.833-.13-1.583-.231-2.241-.093-.657-.241-1.13-.435-1.398v-.37c.991-.028,2.13-.065,3.417-.102s2.5-.065,3.63-.065c2.083,0,3.87.204,5.352.602s2.704.954,3.648,1.667,1.639,1.583,2.083,2.62.657,2.176.657,3.444v-.037ZM218.759,61.324c0-1.981-.519-3.389-1.565-4.241-1.046-.852-2.639-1.278-4.778-1.278-.546,0-1.13.028-1.731.083s-1.25.139-1.935.25v12.361c.546.056,1.157.102,1.833.148.676.037,1.491.065,2.454.065.546,0,1.157-.148,1.833-.435s1.296-.731,1.87-1.315c.574-.593,1.056-1.352,1.444-2.287.389-.935.574-2.046.574-3.333v-.019Z"/>
      <path class="st0" d="M238.417,64.944c-1.287-.278-2.694-.417-4.204-.417-.546,0-1.157.241-1.815.722s-1.278.981-1.852,1.5v5.194c0,.741,0,1.556.019,2.454s.037,1.75.083,2.574c.037.824.12,1.565.231,2.222s.25,1.13.417,1.398v.454h-4.981v-.454c.194-.25.333-.704.435-1.361.093-.657.167-1.407.204-2.241.037-.843.065-1.704.065-2.593v-4.389c0-.741,0-1.556-.019-2.454-.019-.889-.037-1.759-.083-2.593-.037-.843-.111-1.583-.204-2.25-.093-.657-.241-1.13-.435-1.398v-.417h4.287v3.417l4.37-3.176c.352-.278.833-.417,1.444-.417.111,0,.269,0,.472.019s.426.028.657.037c.231.019.463.028.676.037.222.019.407.019.574.019v4.083h-.333l-.009.028Z"/>
      <path class="st0" d="M259.722,70.88c0,1.537-.25,2.954-.759,4.241-.509,1.287-1.213,2.398-2.12,3.315-.907.926-1.981,1.639-3.231,2.167-1.25.519-2.63.787-4.139.787s-2.769-.25-3.935-.741c-1.167-.491-2.167-1.194-3.009-2.102-.843-.907-1.481-1.991-1.935-3.259-.454-1.259-.676-2.667-.676-4.204s.25-2.954.759-4.241,1.213-2.398,2.12-3.315c.907-.917,1.981-1.639,3.231-2.167,1.25-.519,2.63-.778,4.139-.778,1.426,0,2.731.25,3.917.759,1.176.509,2.194,1.213,3.028,2.12s1.481,1.991,1.935,3.259c.454,1.269.676,2.648.676,4.167v-.009ZM255.769,71.38c0-2.639-.574-4.704-1.713-6.204-1.139-1.5-2.62-2.25-4.426-2.25s-3.157.63-4.204,1.898-1.565,3.185-1.565,5.769.565,4.741,1.685,6.222c1.13,1.481,2.593,2.222,4.407,2.222s3.231-.63,4.269-1.898c1.028-1.259,1.546-3.185,1.546-5.769v.009Z"/>
      <path class="st0" d="M280.769,61.324c-.194.25-.343.704-.454,1.361s-.185,1.426-.222,2.306c-.037.88-.074,1.824-.083,2.824s-.019,1.972-.019,2.907c0,1.454,0,2.648.019,3.565.009.917.037,1.722.065,2.407s.046,1.315.065,1.898c.009.574.019,1.231.019,1.981s-.102,1.398-.306,2.065c-.204.657-.463,1.269-.787,1.833s-.676,1.074-1.074,1.546c-.398.463-.787.861-1.176,1.194-1.046.88-2.278,1.63-3.685,2.241-1.417.62-2.972.926-4.676.926-1.046,0-1.954-.093-2.741-.269-.778-.176-1.398-.324-1.833-.435v-3.787h.37c.352.222.796.407,1.315.556.519.148,1.065.278,1.63.389.565.111,1.139.185,1.731.222.593.037,1.157.065,1.713.065.963,0,1.815-.111,2.574-.333s1.407-.602,1.954-1.157c.417-.435.731-.991.972-1.648s.352-1.472.352-2.426v-2.509l-4.657,1.898c-.389.083-.731.139-1.046.167s-.62.037-.926.037c-.935,0-1.861-.222-2.778-.676-.917-.454-1.75-1.102-2.491-1.935s-1.343-1.861-1.815-3.074c-.463-1.213-.704-2.565-.704-4.083s.25-3,.759-4.306c.509-1.306,1.204-2.435,2.083-3.398s1.898-1.713,3.046-2.241c1.157-.537,2.38-.806,3.667-.806,1.954,0,3.574.648,4.861,1.935v-1.648h4.287v.417l-.009-.009ZM276.491,65.565c-.602-.796-1.315-1.38-2.12-1.75-.815-.37-1.713-.556-2.704-.556-1.815,0-3.231.63-4.241,1.898s-1.528,3.009-1.528,5.231c0,1.13.12,2.167.37,3.111.25.944.62,1.759,1.111,2.435.491.676,1.102,1.194,1.833,1.565s1.574.556,2.537.556c.852,0,1.63-.12,2.352-.352.713-.231,1.509-.62,2.389-1.176v-10.963h0Z"/>
      <path class="st0" d="M297.463,64.944c-1.287-.278-2.694-.417-4.204-.417-.546,0-1.157.241-1.815.722s-1.278.981-1.852,1.5v5.194c0,.741,0,1.556.019,2.454s.037,1.75.083,2.574c.037.824.12,1.565.231,2.222s.25,1.13.417,1.398v.454h-4.981v-.454c.194-.25.333-.704.435-1.361.093-.657.167-1.407.204-2.241.037-.843.065-1.704.065-2.593v-4.389c0-.741,0-1.556-.019-2.454-.019-.889-.037-1.759-.083-2.593-.037-.843-.111-1.583-.204-2.25-.093-.657-.241-1.13-.435-1.398v-.417h4.287v3.417l4.37-3.176c.352-.278.833-.417,1.444-.417.111,0,.269,0,.472.019s.426.028.657.037c.231.019.463.028.676.037.222.019.407.019.574.019v4.083h-.333l-.009.028Z"/>
      <path class="st0" d="M311.963,81.056l-.333-2.139-4.528,2.306c-.389.056-.759.093-1.13.102s-.667.019-.889.019c-.852,0-1.639-.139-2.352-.417-.713-.278-1.333-.667-1.852-1.176-.519-.509-.926-1.102-1.213-1.796-.287-.685-.435-1.444-.435-2.269,0-.574.065-1.176.185-1.796.12-.62.333-1.185.639-1.713.491-.769,1.231-1.407,2.204-1.917s2.028-.907,3.148-1.194c1.13-.287,2.25-.5,3.361-.639s2.037-.231,2.778-.287v-2.139c0-.602-.093-1.083-.287-1.444s-.454-.63-.787-.824c-.333-.194-.713-.324-1.157-.389s-.907-.102-1.398-.102c-.574,0-1.194.074-1.852.222-.657.148-1.287.333-1.898.537-.602.204-1.157.417-1.667.639-.509.222-.898.398-1.176.537h-.333v-3.583c.278-.111.639-.222,1.093-.333s.954-.222,1.5-.333,1.13-.194,1.731-.269,1.222-.102,1.852-.102c1.102,0,2.139.111,3.111.333s1.815.546,2.537.991c.713.435,1.278,1,1.685,1.667.417.676.62,1.463.62,2.37,0,1.315-.019,2.435-.065,3.361-.037.917-.065,1.824-.065,2.704,0,.991.009,1.944.037,2.861s.083,1.759.167,2.509c.083.759.194,1.426.333,2s.333,1,.574,1.278v.417h-4.157l.019.009ZM311.556,71.009c-.657-.056-1.259-.093-1.796-.102-.537-.009-1.213-.019-2.037-.019-.963,0-1.88.157-2.759.472-.88.315-1.454.861-1.731,1.63-.167.435-.269.815-.306,1.111-.037.306-.065.63-.065.991,0,1.102.306,1.935.907,2.509.602.574,1.481.861,2.639.861.852,0,1.704-.176,2.556-.537s1.713-.815,2.593-1.361v-5.565.009Z"/>
      <path class="st0" d="M345.093,81.056v-.454c.167-.25.296-.704.389-1.361s.167-1.407.204-2.241c.037-.843.065-1.704.065-2.593v-5.417c0-1.815-.306-3.13-.907-3.935-.602-.815-1.611-1.213-3.009-1.213-.991,0-1.833.148-2.537.435-.704.287-1.528.704-2.491,1.259.056.222.093.491.12.806.028.315.037.657.037,1.009,0,.907-.009,1.852-.037,2.843s-.037,1.991-.037,3.009v1.796c0,.731.019,1.463.065,2.204.037.741.111,1.426.204,2.056s.241,1.083.435,1.361v.454h-4.944v-.454c.194-.25.333-.704.435-1.361.093-.657.167-1.407.204-2.241.037-.843.065-1.704.065-2.593v-5.417c0-1.815-.296-3.13-.889-3.935-.593-.815-1.602-1.213-3.028-1.213-.963,0-1.806.167-2.537.491-.731.333-1.546.769-2.454,1.315v6.306c0,.741,0,1.556.019,2.454s.037,1.75.083,2.574c.037.824.111,1.565.204,2.222s.231,1.13.389,1.398v.454h-4.944v-.454c.194-.25.333-.704.435-1.361.093-.657.167-1.407.204-2.241.037-.843.065-1.704.065-2.593v-4.389c0-.741,0-1.556-.019-2.454-.019-.889-.037-1.759-.083-2.593-.037-.843-.111-1.583-.204-2.25-.093-.657-.241-1.13-.435-1.398v-.417h4.287v2.222l3.917-1.935c.306-.167.62-.306.963-.407s.694-.167,1.046-.167c1.398,0,2.565.259,3.481.759.917.509,1.63,1.204,2.12,2.083l4.528-2.222c.306-.194.63-.343.991-.454.352-.111.731-.167,1.111-.167,2.167,0,3.843.63,5.028,1.88s1.769,2.861,1.769,4.843c0,.907-.019,1.852-.065,2.843-.037.991-.065,1.991-.065,3.009,0,.463,0,1.065.019,1.796.009.731.037,1.463.083,2.204.037.741.111,1.426.204,2.056s.222,1.083.389,1.361v.454h-4.907l.037-.028Z"/>
    </g>
  </g>
</svg>